@startuml
start
while (Game finished?)
    if(Direction input from player?) then (Yes)
        :Store input in nextDirection/
    endif

    if(Has Pacman reached the
    same x and y of a cell?) then (Yes)
        if(Is there wall in the nextDirection?) then (No)
            :Change direction to nextDirection|
        endif
    endif
    if(Is there wall in the current direction?) then (Yes)
        :Don't change the position;
    else (No)
        if(direction is TOP) then (Yes)
            :xOffset = 0
            yOffset = -1|
        elseif(direction is  BOTTOM) then (Yes)
            :xOffset = 0
            yOffset = 1|
        elseif(direction is LEFT) then (Yes)
            :xOffset = -1
            yOffset = 0|
        elseif(direction is RIGHT) then (Yes)
            :xOffset = 1
            yOffset = 0|
        endif
        :x = x + xOffset
        y = y + yOffset|
    endif
    :Pacman moves to next x and y position;
endwhile (Yes)
stop
@enduml